Data Programming
…
1

Show the number of fatalities per state (full name of state required). Furthermore, plot the results with a histogram.

# Solve 1 here

#a) show number of fatalities per state:
data_merged <- inner_join(state_abrv_pop, dataset, by = c("Abbreviation" = "State"))

fatalities_state <- data_merged %>% group_by(State = .$Name.x) %>%
  summarise(n = n())
fatalities_state

# A tibble: 51 × 2
   State                    n
   <chr>                <int>
 1 Alabama                691
 2 Alaska                 126
 3 Arizona                900
 4 Arkansas               384
 5 California            4892
 6 Colorado               673
 7 Connecticut            142
 8 Delaware                63
 9 District of Columbia    88
10 Florida               1851
# ℹ 41 more rows
…
